Editing Selection files • RSMinerveR
…
xmldata <- readSelectionCHK(filepath)

The name of the selection:

selection_name <- xmldata[[1]]
print(selection_name)
#> [1] "New selection"

The description of the objects in the selection:

selection_data <- xmldata[[2]]
print(selection_data)
#> # A tibble: 29 x 4
#>    Model       Object     ID                   Variable                
#>    <chr>       <chr>      <chr>                <chr>                   
#>  1 Model Koksu Source     QSpring              Kichkinesay - QUp (m3/s)
#>  2 Model Koksu Comparator Comparator 1         QReference (m3/s)       
#>  3 Model Koksu Comparator Comparator 1         QSimulation (m3/s)      
#>  4 Model Koksu HBV92      Koksu downstream_eb1 Qr (m3/s)               
#>  5 Model Koksu HBV92      Koksu downstream_eb1 Qu (m3/s)               
#>  6 Model Koksu HBV92      Koksu downstream_eb1 Ql (m3/s)               
#>  7 Model Koksu HBV92      Koksu downstream_eb1 ETR (m/s)               
#>  8 Model Koksu HBV92      Koksu downstream_eb1 Peq (m/s)               
#>  9 Model Koksu HBV92      Koksu downstream_eb1 SWE (m)                 
#> 10 Model Koksu HBV92      Koksu downstream_eb1 WH (-)                  
#> # ... with 19 more rows
…
